{
    "KPlugin": {
        "Authors": [
            {
                "Email": "plasma-devel@kde.org",
                "Name": "Plasma Team",
                "Name[ar]": "فريق بلازما",
                "Name[az]": "Plasma komandası",
                "Name[be]": "Каманда Plasma",
                "Name[bg]": "Екипът на Plasma",
                "Name[ca@valencia]": "L'equip de Plasma",
                "Name[ca]": "L'equip del Plasma",
                "Name[cs]": "Team Plasma",
                "Name[de]": "Das Plasma-Team",
                "Name[en_GB]": "Plasma Team",
                "Name[eo]": "Plasma-Teamo",
                "Name[es]": "Equipo de Plasma",
                "Name[et]": "Plasma meeskond",
                "Name[eu]": "Plasma taldea",
                "Name[fi]": "Plasma-työryhmä",
                "Name[fr]": "Équipe de Plasma",
                "Name[hu]": "A Plasma fejlesztői",
                "Name[ia]": "Equipa de Plasma",
                "Name[id]": "Tim Plasma",
                "Name[is]": "Plasma-þróunarhópurinn",
                "Name[it]": "La squadra di Plasma",
                "Name[ja]": "Plasma チーム",
                "Name[ka]": "Plasma-ის გუნდი",
                "Name[ko]": "Plasma 팀",
                "Name[lt]": "Plasma komanda",
                "Name[nl]": "Team van Plasma",
                "Name[nn]": "Utviklingslaget for Plasma",
                "Name[pa]": "ਪਲਾਜ਼ਮਾ ਟੀਮ",
                "Name[pl]": "Zespół Plazmy",
                "Name[pt]": "Equipa do Plasma",
                "Name[pt_BR]": "Temas do Plasma",
                "Name[ro]": "Echipa Plasma",
                "Name[ru]": "Команда разработчиков Plasma",
                "Name[sk]": "Plasma Tím",
                "Name[sl]": "Ekipa Plasme",
                "Name[sv]": "Plasma-gruppen",
                "Name[ta]": "பிளாஸ்மா குழு",
                "Name[tr]": "Plasma Takımı",
                "Name[uk]": "Команда розробників Плазми",
                "Name[vi]": "Đội Plasma",
                "Name[x-test]": "xxPlasma Teamxx",
                "Name[zh_CN]": "Plasma 开发团队",
                "Name[zh_TW]": "Plasma 團隊"
            }
        ],
        "Description": "Fast user switching",
        "Description[ar]": "تبديل سريع للمستخدِم",
        "Description[az]": "İstifadəçinin cəld dəyişdirilməsi",
        "Description[be]": "Хуткае пераключэнне карыстальніка",
        "Description[bg]": "Бързо превключване на потребителите",
        "Description[ca@valencia]": "Commutador ràpid d'usuari",
        "Description[ca]": "Commutador ràpid d'usuari",
        "Description[cs]": "Rychlé přepínání uživatelů",
        "Description[da]": "Hurtig brugerskift",
        "Description[de]": "Schneller Benutzerwechsel",
        "Description[en_GB]": "Fast user switching",
        "Description[eo]": "Rapida ŝanĝado de uzantoj",
        "Description[es]": "Cambio rápido de usuario",
        "Description[et]": "Kiire kasutaja vahetamine",
        "Description[eu]": "Erabiltzaile-aldaketa bizkorra",
        "Description[fi]": "Nopea käyttäjänvaihto",
        "Description[fr]": "Basculement rapide d'utilisateurs",
        "Description[hu]": "Felhasználóváltó",
        "Description[ia]": "Commutation rapide de usator",
        "Description[id]": "Peralihan pengguna yang cepat",
        "Description[is]": "Hröð skipting milli notenda",
        "Description[it]": "Cambio rapido dell'utente",
        "Description[ja]": "ユーザを素早く切り替えます",
        "Description[ka]": "მომხმარებლების სწრაფი გადართვა",
        "Description[ko]": "빠른 사용자 전환",
        "Description[lt]": "Greitas naudotojų perjungimas",
        "Description[nl]": "Snel van gebruiker wisselen",
        "Description[nn]": "Kjapt brukarbyte",
        "Description[pa]": "ਫ਼ੌਰਨ ਵਰਤੋਂਕਾਰ ਸਵਿੱਚਰ",
        "Description[pl]": "Przełącza między użytkownikami",
        "Description[pt]": "Mudança rápida de utilizador",
        "Description[pt_BR]": "Mudança rápida de usuário",
        "Description[ro]": "Comutare rapidă între utilizatori",
        "Description[ru]": "Быстрое переключение пользователей",
        "Description[sk]": "Rýchle prepínanie používateľov",
        "Description[sl]": "Hitro preklapljanje uporabnikov",
        "Description[sv]": "Snabbt användarbyte",
        "Description[ta]": "அமர்வுகளுக்கிடையே வேகமாக தாவ உதவும்",
        "Description[tr]": "Hızlı kullanıcı değiştirme",
        "Description[uk]": "Швидке перемикання користувачів",
        "Description[vi]": "Chuyển người dùng nhanh",
        "Description[x-test]": "xxFast user switchingxx",
        "Description[zh_CN]": "快速用户切换",
        "Description[zh_TW]": "快速切換使用者",
        "EnabledByDefault": true,
        "Icon": "system-shutdown",
        "Id": "desktopsessions",
        "License": "LGPL",
        "Name": "Desktop Sessions",
        "Name[ar]": "جلسات سطح المكتب",
        "Name[az]": "İş masası sesiyaları",
        "Name[be@latin]": "Sesii rabočaha stała",
        "Name[be]": "Сеансы працоўнага асяроддзя",
        "Name[bg]": "Сесии",
        "Name[bn]": "ডেস্কটপ সেশন",
        "Name[bn_IN]": "ডেস্কটপের সেশান",
        "Name[bs]": "Sesije radne površi",
        "Name[ca@valencia]": "Sessions d'escriptori",
        "Name[ca]": "Sessions d'escriptori",
        "Name[cs]": "Sezení plochy",
        "Name[csb]": "Sesëje pùltu",
        "Name[da]": "Skrivebordssessioner",
        "Name[de]": "Desktop-Sitzungen",
        "Name[el]": "Συνεδρίες επιφάνειας εργασίας",
        "Name[en_GB]": "Desktop Sessions",
        "Name[eo]": "Labortablaj seancoj",
        "Name[es]": "Sesiones de escritorio",
        "Name[et]": "Töölauaseansid",
        "Name[eu]": "Mahaigaineko saioak",
        "Name[fi]": "Työpöytäistunnot",
        "Name[fr]": "Sessions de bureau",
        "Name[fy]": "Buroblêdsesjes",
        "Name[ga]": "Seisiúin Deisce",
        "Name[gl]": "Sesións do escritorio",
        "Name[gu]": "ડેસ્કટોપ સત્રો",
        "Name[he]": "הפעלות של שולחן העבודה",
        "Name[hi]": "डेस्कटॉप सत्र",
        "Name[hne]": "डेस्कटाप सेसन",
        "Name[hr]": "Sesije radne površine",
        "Name[hsb]": "Posedźenja z dźěłowym powjerchom",
        "Name[hu]": "Asztali munkamenetek",
        "Name[ia]": "Sessiones de scriptorio",
        "Name[id]": "Sesi Desktop",
        "Name[is]": "Skjáborðssetur",
        "Name[it]": "Sessioni desktop",
        "Name[ja]": "デスクトップセッション",
        "Name[ka]": "სამუშაო მაგიდის სესიები",
        "Name[kk]": "Үстел сеансы",
        "Name[km]": "សម័យ​ផ្ទៃតុ",
        "Name[kn]": "ಗಣಕತೆರೆ  ಅಧಿವೇಶನಗಳು (ಸೆಶನ್)",
        "Name[ko]": "데스크톱 세션",
        "Name[ku]": "Danişînên Sermaseyê",
        "Name[lt]": "Darbalaukio seansai",
        "Name[lv]": "Darbvirsmas sesijas",
        "Name[mk]": "Работни сесии",
        "Name[ml]": "പണിയിടത്തിന്റെ പ്രവര്‍ത്തനവേളകള്‍",
        "Name[mr]": "डेस्कटॉप सत्र",
        "Name[nb]": "Skrivebordsøkter",
        "Name[nds]": "Schriefdischtörns",
        "Name[nl]": "Desktopsessies",
        "Name[nn]": "Skrivebordsøkter",
        "Name[or]": "ଡ଼େସ୍କଟପ ଅଧିବେଶନଗୁଡ଼ିକ",
        "Name[pa]": "ਡੈਸਕਟਾਪ ਸ਼ੈਸ਼ਨ",
        "Name[pl]": "Sesje pulpitu",
        "Name[pt]": "Sessões do Ecrã",
        "Name[pt_BR]": "Sessões da área de trabalho",
        "Name[ro]": "Sesiuni de birou",
        "Name[ru]": "Сеансы",
        "Name[si]": "වැඩතල සැසිය",
        "Name[sk]": "Sedenia plochy",
        "Name[sl]": "Namizne seje",
        "Name[sr@ijekavian]": "сесије радне површи",
        "Name[sr@ijekavianlatin]": "sesije radne površi",
        "Name[sr@latin]": "sesije radne površi",
        "Name[sr]": "сесије радне површи",
        "Name[sv]": "Skrivbordssessioner",
        "Name[ta]": "பணிமேடை அமர்வுகள்",
        "Name[te]": "డెస్‍క్ టాప్ భాగములు",
        "Name[tg]": "Ҷаласаҳои мизи корӣ",
        "Name[th]": "วาระงานของพื้นที่ทำงาน",
        "Name[tr]": "Masaüstü Oturumları",
        "Name[ug]": "ئۈستەلئۈستى ئەڭگىمە",
        "Name[uk]": "Стільничні сеанси",
        "Name[vi]": "Phiên bàn làm việc",
        "Name[wa]": "Sessions do scribanne",
        "Name[x-test]": "xxDesktop Sessionsxx",
        "Name[zh_CN]": "桌面会话",
        "Name[zh_TW]": "桌面工作階段"
    },
    "X-Plasma-ShowDesciptionInOverview": true
}
