{
    "KPlugin": {
        "Description": "Applies extracted accent color from wallpaper on request",
        "Description[ar]": "تطبق لون التمييز المستخرج من صورة الخلفية عند الطلب",
        "Description[az]": "Tələbə görə fərqləndirmə rəngini divar kağızındakı rəngə uyğun olaraq təyin edir",
        "Description[be]": "Ужывае па запыце выняты са шпалер дамінанты колер",
        "Description[bg]": "Прилага извлечен цвят на акцента от тапета при заявка",
        "Description[ca@valencia]": "Aplica el color d'accent extret a partir del fons de pantalla a petició",
        "Description[ca]": "Aplica el color d'accent extret a partir del fons de pantalla a petició",
        "Description[cs]": "Použije na požádání získanou barvu nádechu tapety",
        "Description[en_GB]": "Applies extracted accent colour from wallpaper on request",
        "Description[es]": "Aplica el color de acentuación extraído del fondo de pantalla bajo petición",
        "Description[eu]": "Horma-paperetik ateratako azentu-kolorea ezartzen du hala eskatzean",
        "Description[fr]": "Applique une couleur accentuée extraite du fond d'écran à partir d'une requête",
        "Description[ia]": "Applic accento de color extracte ab le tapete de papiro sur requesta",
        "Description[is]": "Notar áherslulit úr veggfóðri eftir beiðni",
        "Description[it]": "Applica il colore secondario estratto dallo sfondo su richiesta",
        "Description[ka]": "მოთხოვნისას ფონიდან მოპოვებული ფერის გადატარება",
        "Description[lt]": "Pagal užklausą taiko iš darbalaukio fono išgautą paryškinimo spalvą",
        "Description[nl]": "Past de uitgepakte accentueerkleur uit achtergrondafbeelding op verzoek toe",
        "Description[nn]": "Tek i bruk uthenta kontrastfarge frå bakgrunnsbiletet ved førespurnad",
        "Description[pl]": "Stosuje wydobytą barwę akcentu z tapety na żądanie",
        "Description[pt]": "Aplica a cor acentuada extraída do papel de parede no pedido",
        "Description[pt_BR]": "Aplica a cor de destaque extraída do papel de parede a pedido",
        "Description[ru]": "Определение и применение цвета выделения на основании используемых обоев",
        "Description[sk]": "Aplikuje extrahovanú farbu akcentu z tapety na požiadanie",
        "Description[sl]": "Uveljavi izločeno barvo poudarka iz ozadja na zahtevo",
        "Description[sv]": "Använder extraherad accentfärg från skrivbordsunderlägg på begäran",
        "Description[ta]": "கோரிக்கைக்கேற்ப, பின்புல படித்தின் பிரதான நிறத்தை நிறத்திட்டத்தின் சிறப்பு நிறமாக அமைக்கும்",
        "Description[tr]": "İsteğe bağlı olarak, duvar kağıdından çıkarılan vurgu rengini uygular",
        "Description[uk]": "Застосовує видобутий з фонового зображення стільниці колір акценту у відповідь на запит",
        "Description[vi]": "Áp dụng màu chủ đạo trích xuất từ phông nền khi có yêu cầu",
        "Description[x-test]": "xxApplies extracted accent color from wallpaper on requestxx",
        "Description[zh_CN]": "按照请求应用从壁纸中提取的重点色",
        "Description[zh_TW]": "要求時從桌布取出強調色並套用",
        "Name": "Accent Color",
        "Name[ar]": "لون التمييز",
        "Name[az]": "Fərqləndirmə rəngi",
        "Name[be]": "Дамінанты колер",
        "Name[bg]": "Цвят за акцентиране",
        "Name[ca@valencia]": "Color d'accent",
        "Name[ca]": "Color d'accent",
        "Name[cs]": "Barva nádechu",
        "Name[en_GB]": "Accent Colour",
        "Name[eo]": "Emfazkoloro",
        "Name[es]": "Color de acentuación",
        "Name[et]": "Varjundivärv",
        "Name[eu]": "Azentu-kolorea",
        "Name[fr]": "Couleurs accentuées",
        "Name[ia]": "Color de accento",
        "Name[is]": "Áherslulitur",
        "Name[it]": "Colore secondario",
        "Name[ka]": "აქცენტის ფერი",
        "Name[lt]": "Paryškinimo spalva",
        "Name[nl]": "Accentueringskleur",
        "Name[nn]": "Kontrast­farge",
        "Name[pl]": "Kolor akcentu",
        "Name[pt]": "Cor Acentuada",
        "Name[pt_BR]": "Cor de destaque",
        "Name[ru]": "Служба цвета выделения",
        "Name[sk]": "Akcentová farba",
        "Name[sl]": "barva poudarka",
        "Name[sv]": "Accentfärg",
        "Name[ta]": "சிறப்பு நிறம்",
        "Name[tr]": "Vurgu Rengi",
        "Name[uk]": "Колір акценту",
        "Name[vi]": "Màu chủ đạo",
        "Name[x-test]": "xxAccent Colorxx",
        "Name[zh_CN]": "重点色",
        "Name[zh_TW]": "強調色"
    },
    "X-KDE-FactoryName": "accentColorService",
    "X-KDE-Kded-autoload": true
}
